…
1.3 Now that you’ve explored the 4 datasets that you were initially most
interested in, let’s narrow it down to 2. What lead you to choose these
2? Briefly explain your choices below, and feel free to include any code
in your explanation.

<!-------------------------- Start your work below ---------------------------->

``` r
flow_sample %>%
  select(everything()) %>%
  arrange(year)
```

    ## # A tibble: 218 × 7
    ##    station_id  year extreme_type month   day   flow sym  
    ##    <chr>      <dbl> <chr>        <dbl> <dbl>  <dbl> <chr>
    ##  1 05BB001     1909 maximum          7     7 314    <NA> 
    ##  2 05BB001     1909 minimum         NA    NA  NA    <NA> 
    ##  3 05BB001     1910 maximum          6    12 230    <NA> 
    ##  4 05BB001     1910 minimum         NA    NA  NA    <NA> 
    ##  5 05BB001     1911 maximum          6    14 264    <NA> 
    ##  6 05BB001     1911 minimum          2    27   5.75 <NA> 
    ##  7 05BB001     1912 maximum          8    25 174    <NA> 
    ##  8 05BB001     1912 minimum          3    14   5.8  <NA> 
    ##  9 05BB001     1913 maximum          6    11 232    <NA> 
    ## 10 05BB001     1913 minimum          3    18   6.12 B    
    ## # … with 208 more rows
…
**Exercise 2**

Next, I created a new variable `location` to combine longitude and
latitude columns (corresponding to Q2), which makes the tree location
clear.

``` r
vancouver_trees %>%
  unite(col = location, c(longitude, latitude), sep = ", ") %>%
  select(tree_id, location)
```

    ## # A tibble: 146,611 × 2
    ##    tree_id location              
    ##      <dbl> <chr>                 
    ##  1  149556 -123.116113, 49.217763
    ##  2  149563 -123.114718, 49.217759
    ##  3  149579 -123.084553, 49.239375
    ##  4  149590 -123.086986, 49.234688
    ##  5  149604 -123.084565, 49.238944
    ##  6  149616 -123.119589, 49.215133
    ##  7  149617 -123.081328, 49.239975
    ##  8  149618 -123.081331, 49.239725
    ##  9  149619 -123.081341, 49.239511
    ## 10  149625 -123.089727, 49.234721
    ## # … with 146,601 more rows
…
I want to make a new tibble with a subset of my data (corresponding to
Q7), with `tree_id`, `diameter`, `height_range_id`, `genus_name`,
`species_name`, `cultivar_name`, `common_name` and filter all
`root_barrier='Y'` observations to further explore the relationship
between these variables.

``` r
subset_vancouver_trees <- vancouver_trees %>%
  select(tree_id, diameter, height_range_id, genus_name, species_name, cultivar_name, common_name,root_barrier) %>%
  filter(root_barrier == 'N')

print(subset_vancouver_trees)
```

    ## # A tibble: 137,455 × 8
    ##    tree_id diameter height_range_id genus_name species…¹ culti…² commo…³ root_…⁴
    ##      <dbl>    <dbl>           <dbl> <chr>      <chr>     <chr>   <chr>   <chr>  
    ##  1  149556     10                 2 ULMUS      AMERICANA BRANDON BRANDO… N      
    ##  2  149563     10                 4 ZELKOVA    SERRATA   <NA>    JAPANE… N      
    ##  3  149579      4                 3 STYRAX     JAPONICA  <NA>    JAPANE… N      
    ##  4  149590     18                 4 FRAXINUS   AMERICANA AUTUMN… AUTUMN… N      
    ##  5  149604      9                 2 ACER       CAMPESTRE <NA>    HEDGE … N      
    ##  6  149616      5                 2 PYRUS      CALLERYA… CHANTI… CHANTI… N      
    ##  7  149617     15                 3 ACER       PLATANOI… COLUMN… COLUMN… N      
    ##  8  149618     14                 3 ACER       PLATANOI… COLUMN… COLUMN… N      
    ##  9  149619     16                 2 ACER       PLATANOI… COLUMN… COLUMN… N      
    ## 10  149625      7.5               2 FRAXINUS   AMERICANA AUTUMN… AUTUMN… N      
    ## # … with 137,445 more rows, and abbreviated variable names ¹​species_name,
    ## #   ²​cultivar_name, ³​common_name, ⁴​root_barrier
…
**Summarizing:**

I compute the number of observations for `genus` and `neighbourhood`
variables.

``` r
genus_neighbourhood_vancouver_trees <- vancouver_trees %>%
  select(neighbourhood_name, genus_name) %>%
  group_by(neighbourhood_name, genus_name) %>%
  count()

print(genus_neighbourhood_vancouver_trees)
```

    ## # A tibble: 1,303 × 3
    ## # Groups:   neighbourhood_name, genus_name [1,303]
    ##    neighbourhood_name genus_name      n
    ##    <chr>              <chr>       <int>
    ##  1 ARBUTUS-RIDGE      ABIES          18
    ##  2 ARBUTUS-RIDGE      ACER          867
    ##  3 ARBUTUS-RIDGE      AESCULUS      134
    ##  4 ARBUTUS-RIDGE      AMELANCHIER    19
    ##  5 ARBUTUS-RIDGE      BETULA         77
    ##  6 ARBUTUS-RIDGE      CALOCEDRUS      1
    ##  7 ARBUTUS-RIDGE      CARPINUS      167
    ##  8 ARBUTUS-RIDGE      CATALPA         5
    ##  9 ARBUTUS-RIDGE      CEDRUS         11
    ## 10 ARBUTUS-RIDGE      CELTIS          4
    ## # … with 1,293 more rows
…
**Summarizing:**

I compute the number of observations for `genus` and sort them. Then I
try to find out the top 5 number of tree genus and plot them.

``` r
vancouver_trees %>%
  select(genus_name) %>%
  group_by(genus_name) %>%
  count() %>%
  arrange(desc(n))
```

    ## # A tibble: 97 × 2
    ## # Groups:   genus_name [97]
    ##    genus_name     n
    ##    <chr>      <int>
    ##  1 ACER       36062
    ##  2 PRUNUS     30683
    ##  3 FRAXINUS    7381
    ##  4 TILIA       6773
    ##  5 QUERCUS     6119
    ##  6 CARPINUS    5806
    ##  7 FAGUS       4808
    ##  8 MALUS       4173
    ##  9 MAGNOLIA    3899
    ## 10 CRATAEGUS   3864
    ## # … with 87 more rows
…
