…
> Is root barrier affecting the diameter of trees? Is there any
> relationship between root_barrier, and tree genus/species?

First, I only keep `genus_name`, `root_barrier`, `diameter` columns and
drop the others.

``` r
genus_root_barrier_diameter_vancouver_trees <- vancouver_trees %>%
  select(genus_name, root_barrier, diameter)

genus_root_barrier_diameter_vancouver_trees
```

    ## # A tibble: 146,611 × 3
    ##    genus_name root_barrier diameter
    ##    <chr>      <chr>           <dbl>
    ##  1 ULMUS      N                10  
    ##  2 ZELKOVA    N                10  
    ##  3 STYRAX     N                 4  
    ##  4 FRAXINUS   N                18  
    ##  5 ACER       N                 9  
    ##  6 PYRUS      N                 5  
    ##  7 ACER       N                15  
    ##  8 ACER       N                14  
    ##  9 ACER       N                16  
    ## 10 FRAXINUS   N                 7.5
    ## # … with 146,601 more rows

Then filter all `root_barrier == 'Y'` samples to calculate the number of
root_barrier-installed trees for each genus.

``` r
number_of_root_barrier <- genus_root_barrier_diameter_vancouver_trees %>%
  filter(root_barrier == 'Y') %>%
  group_by(genus_name) %>%
  count() %>%
  arrange(desc(n)) 

number_of_root_barrier
```

    ## # A tibble: 45 × 2
    ## # Groups:   genus_name [45]
    ##    genus_name     n
    ##    <chr>      <int>
    ##  1 ACER        3109
    ##  2 PRUNUS       898
    ##  3 CARPINUS     664
    ##  4 FRAXINUS     546
    ##  5 FAGUS        473
    ##  6 PYRUS        414
    ##  7 CRATAEGUS    403
    ##  8 PARROTIA     368
    ##  9 SORBUS       362
    ## 10 SYRINGA      253
    ## # … with 35 more rows
…
``` r
mean_diameter_root_barrier <- genus_root_barrier_diameter_vancouver_trees %>%
  group_by(root_barrier, genus_name) %>%
  summarise(Mean = mean(diameter)) %>%
  pivot_wider(names_from = root_barrier, values_from = Mean)
```

    ## `summarise()` has grouped output by 'root_barrier'. You can override using the
    ## `.groups` argument.

``` r
mean_diameter_root_barrier
```

    ## # A tibble: 97 × 3
    ##    genus_name      N     Y
    ##    <chr>       <dbl> <dbl>
    ##  1 ABIES       13.0   3   
    ##  2 ACER        11.2   4.64
    ##  3 AESCULUS    23.9   9.31
    ##  4 AILANTHUS   15.9  NA   
    ##  5 ALBIZIA      6    NA   
    ##  6 ALNUS       17.5  NA   
    ##  7 AMELANCHIER  3.22  2.5 
    ##  8 ARALIA       6.81 NA   
    ##  9 ARAUCARIA   11.4  NA   
    ## 10 ARBUTUS     18.4  NA   
    ## # … with 87 more rows
…
Not only date_plant, the other colmuns like tree genus, species, or
cultivar may also impact the tree diameter. I try to explore the tree
diameter statistics under different tree genus, species, or cultivar.

First, I only keep `genus`, `species`, `cultivar`, `diameter` columns
and drop the others.

``` r
genus_species_cultivar_diameter_vancouver_trees <- vancouver_trees %>%
  select(genus_name, species_name, cultivar_name, diameter)

genus_species_cultivar_diameter_vancouver_trees
```

    ## # A tibble: 146,611 × 4
    ##    genus_name species_name cultivar_name   diameter
    ##    <chr>      <chr>        <chr>              <dbl>
    ##  1 ULMUS      AMERICANA    BRANDON             10  
    ##  2 ZELKOVA    SERRATA      <NA>                10  
    ##  3 STYRAX     JAPONICA     <NA>                 4  
    ##  4 FRAXINUS   AMERICANA    AUTUMN APPLAUSE     18  
    ##  5 ACER       CAMPESTRE    <NA>                 9  
    ##  6 PYRUS      CALLERYANA   CHANTICLEER          5  
    ##  7 ACER       PLATANOIDES  COLUMNARE           15  
    ##  8 ACER       PLATANOIDES  COLUMNARE           14  
    ##  9 ACER       PLATANOIDES  COLUMNARE           16  
    ## 10 FRAXINUS   AMERICANA    AUTUMN APPLAUSE      7.5
    ## # … with 146,601 more rows

``` r
genus_species_cultivar_diameter_vancouver_trees %>%
  group_by(genus_name) %>%
  summarise(max(diameter), min(diameter), mean(diameter))
```

    ## # A tibble: 97 × 4
    ##    genus_name  `max(diameter)` `min(diameter)` `mean(diameter)`
    ##    <chr>                 <dbl>           <dbl>            <dbl>
    ##  1 ABIES                  42.5               1            12.9 
    ##  2 ACER                  317                 0            10.6 
    ##  3 AESCULUS               64                 0            23.7 
    ##  4 AILANTHUS              21.5               3            15.9 
    ##  5 ALBIZIA                 6                 6             6   
    ##  6 ALNUS                  40                 0            17.5 
    ##  7 AMELANCHIER            20                 0             3.21
    ##  8 ARALIA                 12                 3             6.81
    ##  9 ARAUCARIA              32                 3            11.4 
    ## 10 ARBUTUS                33                 6            18.4 
    ## # … with 87 more rows

``` r
genus_species_cultivar_diameter_vancouver_trees %>%
  group_by(species_name) %>%
  summarise(max(diameter), min(diameter), mean(diameter))
```

    ## # A tibble: 283 × 4
    ##    species_name   `max(diameter)` `min(diameter)` `mean(diameter)`
    ##    <chr>                    <dbl>           <dbl>            <dbl>
    ##  1 ABIES                     35               2              12.9 
    ##  2 ACERIFOLIA   X            57               2              20.8 
    ##  3 ACUMINATA                 28               2              10.9 
    ##  4 ACUTISSIMA                36               2               8.87
    ##  5 AILANTHIFOLIA             40              24              32   
    ##  6 ALBA                      40               1.5            19.4 
    ##  7 ALBA-SINENSIS             10               7               8.67
    ##  8 ALNIFOLIA                 20.2             2               5.23
    ##  9 ALPINUM                    8               8               8   
    ## 10 ALTISSIMA                 21.5             3              15.9 
    ## # … with 273 more rows

``` r
genus_species_cultivar_diameter_vancouver_trees %>%
  group_by(cultivar_name) %>%
  summarise(max(diameter), min(diameter), mean(diameter))
```

    ## # A tibble: 294 × 4
    ##    cultivar_name   `max(diameter)` `min(diameter)` `mean(diameter)`
    ##    <chr>                     <dbl>           <dbl>            <dbl>
    ##  1 ACCOLADE                   42              3               20.8 
    ##  2 AKEBONO                    66              0                7.76
    ##  3 ALIA                        5.5            5                5.33
    ##  4 ALLGOLD                    11.5            2                3.81
    ##  5 ALMIRA                     29              5               17.4 
    ##  6 AMANOGAWA                  26              3                8.52
    ##  7 AMERICAN BEAUTY             6              4                5.33
    ##  8 APOLLO                      3              3                3   
    ##  9 ARIE PETERS                30              0                3.98
    ## 10 ARISTOCRAT                 12              0.75             4.92
    ## # … with 284 more rows
…
I try to fit the model to predict the root-installed “PRUNUS” genus tree
diameter based on their plant date.

First, filter `genus_name == "PRUNUS"`, `root_barrier == "Y"`.

``` r
PRUNUS_vancouver_trees <- vancouver_trees %>%
  select(diameter, date_planted, genus_name, root_barrier) %>%
  filter(genus_name == "PRUNUS", root_barrier == "Y") %>%
  drop_na()

PRUNUS_vancouver_trees
```

    ## # A tibble: 882 × 4
    ##    diameter date_planted genus_name root_barrier
    ##       <dbl> <date>       <chr>      <chr>       
    ##  1     7    2005-12-01   PRUNUS     Y           
    ##  2     7    2005-12-01   PRUNUS     Y           
    ##  3     5    2005-12-01   PRUNUS     Y           
    ##  4     5    2005-12-01   PRUNUS     Y           
    ##  5     8.5  2005-12-09   PRUNUS     Y           
    ##  6     5    2007-01-18   PRUNUS     Y           
    ##  7     5    2006-01-12   PRUNUS     Y           
    ##  8     3    2006-01-13   PRUNUS     Y           
    ##  9     3.25 2007-01-16   PRUNUS     Y           
    ## 10     8    2006-01-24   PRUNUS     Y           
    ## # … with 872 more rows
…
I would like to choose the table below, which was made in Milestone 1 to
finish this task.

``` r
count_genus_vancouver_trees <- vancouver_trees %>%
  select(genus_name) %>%
  group_by(genus_name) %>%
  count() %>%
  arrange(desc(n))

count_genus_vancouver_trees
```

    ## # A tibble: 97 × 2
    ## # Groups:   genus_name [97]
    ##    genus_name     n
    ##    <chr>      <int>
    ##  1 ACER       36062
    ##  2 PRUNUS     30683
    ##  3 FRAXINUS    7381
    ##  4 TILIA       6773
    ##  5 QUERCUS     6119
    ##  6 CARPINUS    5806
    ##  7 FAGUS       4808
    ##  8 MALUS       4173
    ##  9 MAGNOLIA    3899
    ## 10 CRATAEGUS   3864
    ## # … with 87 more rows
…
